{
  "_pkglts": {
    "auto_install": true,
    "install_front_end": "stdout",
    "use_prompts": false,
    "version": 12
  },
  "base": {
    "authors": [
      [
        "Guillaume Cerutti",
        "guillaume.cerutti@ens-lyon.fr"
      ]
    ],
    "namespace": null,
    "namespace_method": "pkg_util",
    "pkgname": "tissue_paredes",
    "url": null
  },
  "coverage": {},
  "doc": {
    "description": "Polarity Analysis through Robust Extraction and Density Estimation of Signal at cell-wall level",
    "fmt": "rst",
    "keywords": []
  },
  "git": {},
  "gitlab": {
    "owner": "mosaic",
    "project": "{{ base.pkgname }}",
    "server": "gitlab.inria.fr",
    "url": "https://{{ gitlab.server }}/{{ gitlab.owner }}/{{ gitlab.project }}"
  },
  "license": {
    "name": "cecill-c",
    "organization": "inria",
    "project": "{{ base.pkgname }}",
    "year": 2019
  },
  "pysetup": {
    "intended_versions": [
      "36"
    ],
    "require": []
  },
  "test": {
    "suite_name": "nose"
  },
  "version": {
    "major": 0,
    "minor": 9,
    "post": 0
  }
}
